module github.com/amblified/pulp

go 1.16

require (
	github.com/google/go-cmp v0.5.6
	github.com/gorilla/websocket v1.4.2
	github.com/kr/pretty v0.2.1
	golang.org/x/sync v0.0.0-20210220032951-036812b2e83c
	golang.org/x/tools v0.1.5
)
